[gd_scene load_steps=3 format=3 uid="uid://dryuqs7x6u02p"]

[ext_resource type="PackedScene" uid="uid://copou00iffb2f" path="res://scenes/Paper.tscn" id="1_dg1jt"]
[ext_resource type="Resource" uid="uid://dgbvak7kvqir3" path="res://folios/001/002.tres" id="2_1e1tj"]

[node name="Node2D" type="Node2D"]

[node name="Paper" parent="." instance=ExtResource("1_dg1jt")]
position = Vector2(408, 309)

[node name="Paper2" parent="." instance=ExtResource("1_dg1jt")]
position = Vector2(850, 320)
folio = ExtResource("2_1e1tj")
