[gd_resource type="Resource" script_class="Folio" load_steps=2 format=3 uid="uid://dgbvak7kvqir3"]

[ext_resource type="Script" path="res://folios/Folio.gd" id="1_6jpxw"]

[resource]
script = ExtResource("1_6jpxw")
recto_content = "page2r"
verso_content = "page2v"
